-10 0.00006512521802707347
-9 0.00014279949286977466
-8 0.0003130861856259629
-7 0.0006862983463184699
-6 0.0015037262140201674
-5 0.003291559198668397
-4 0.007189704123696567
-3 0.015631960977341593
-2 0.03365123936215208
-1 0.07094469852283947
0 0.14343352342714188
1 0.2685772713031506
2 0.44604945397698553
3 0.6384312394930383
4 0.7947451435032233
5 0.8946341621323105
6 0.949029059624137
7 0.976093105313282
8 0.9889542071637387
9 0.9949323913397167
10 0.9976826549232406
