-4 -4 7.671863549301943
-4 -3 3.564475339568549
-4 -2 0.1466698886948672
-4 -1 -2.4568514995698134
-4 0 -4.181200243994212
-4 1 -4.997817665100211
-4 2 -4.898831764370655
-4 3 -3.8844363547619167
-4 4 -1.9518944420303512
-3 -4 4.086568350744457
-3 -3 1.237026538115746
-3 -2 -1.0220477704428692
-3 -1 -2.3588592980173857
-3 0 -2.5946515296486368
-3 1 -1.648589647633358
-3 2 0.5023884148616347
-3 3 3.8577653547640764
-3 4 8.42429677346614
-2 -4 2.739496016436142
-2 -3 1.0096957395690893
-2 -2 -0.8964349265979052
-2 -1 -2.2389288098434683
-2 0 -2.584324472040871
-2 1 -1.7270963740260967
-2 2 0.39089429737219916
-2 3 3.7627411995903515
-2 4 8.39887430104639
-1 -4 0.16138771395919704
-1 -3 0.6428540493781094
-1 -2 -0.2526276344457554
-1 -1 -1.4913242095638757
-1 0 -2.3393253639752523
-1 1 -2.4178741556530206
-1 2 -1.6393012765118868
-1 3 -0.06846825609405016
-1 4 2.2621542879046146
0 -4 -2.903804899035503
0 -3 -0.9116119144090291
0 -2 -0.31756396875945825
0 -1 -0.5255369225754833
0 0 -0.9205181372229507
0 1 -1.1597942973440798
0 2 -1.2718266043343007
0 3 -1.562938933593614
0 4 -2.348101716978313
1 -4 -0.9299030683691605
1 -3 -0.2728537661954462
1 -2 0.08032906629473935
1 -1 0.20918294962711848
1 0 0.3435428257245574
1 1 0.5829880311216922
1 2 0.6892397215758734
1 3 0.03542468499128404
1 4 -2.224707876109843
2 -4 3.908611764935479
2 -3 2.3910706627163982
2 -2 1.3400127819996044
2 -1 0.684296741357926
2 0 0.46249575399717724
2 1 0.6454609181212758
2 2 0.9482058852135395
2 3 0.6978020601517031
2 4 -1.1827867136282322
3 -4 5.042945794598552
3 -3 2.684091746547452
3 -2 1.028529443301057
3 -1 0.0017945402508061647
3 0 -0.4071577316839319
3 1 -0.24721320499655774
3 2 0.26455209888654796
3 3 0.6156093790720991
3 4 -0.10563530864937398
4 -4 -1.5745255762847563
4 -3 -2.7003368777317647
4 -2 -3.202877380835929
4 -1 -3.1329999239371453
4 0 -2.5066714746785568
4 1 -1.3600831080832045
4 2 0.17119179072971846
4 3 1.7620243242892464
4 4 2.7954520166983485
